…
``` r
## TASK: Choose a sample size and generate samples
n <- 10000

#Generate Data
df_q1 <- tibble(
  x = runif(n, min = 0, max = 1), 
  y = runif(n, min = 0, max = 1)
)

df_q1
```

    ## # A tibble: 10,000 × 2
    ##         x     y
    ##     <dbl> <dbl>
    ##  1 0.559  0.986
    ##  2 0.558  0.541
    ##  3 0.0482 0.308
    ##  4 0.0507 0.212
    ##  5 0.525  0.565
    ##  6 0.482  0.879
    ##  7 0.539  0.271
    ##  8 0.945  0.166
    ##  9 0.0664 0.806
    ## 10 0.590  0.930
    ## # … with 9,990 more rows
…
